{
	"id":"sd_advancedHullMods",
	"name":"Advanced Hullmods",
    "utility": "false",
	"author":"ShadowDragon8685",
	"version":{"major":1, "minor":1, "patch":2},
	"description":"Adds Advanced Hullmods which extend Vanilla hullmod capabilities; incorporates Eased and Relaxed Logistics (see readme) and Sundiving changes to Solar Shielding.",
    "gameVersion":"0.95.1a-RC6",
    "dependencies": [
        {"id": "MagicLib", "name": "MagicLib"},
    ],
	"replace":[
	"data\\hullmods\\SolarShielding.java",
	"data\\hullmods\\MilitarizedSubsystems.java",
	],
}